<svg width="211.67mm" height="219.69mm" version="1.1" viewBox="0 0 211.67 219.69" xmlns="http://www.w3.org/2000/svg" xmlns:xlink="http://www.w3.org/1999/xlink">
 <defs>
  <clipPath id="a">
   <path d="m0 0h595.28v595.28h-595.28z"/>
  </clipPath>
 </defs>
 <g transform="translate(215.45 -17.823)">
  <g transform="matrix(.8 0 0 .8 -333.03 47.047)">
   <g transform="matrix(24.018 0 0 -24.018 -8094.9 12845)">
    <g transform="translate(351.17 536.31)">
     <path d="m0 0h-5.022l-2.996-2.996 5.508-5.508 5.508 5.508zm-7.174-2.996 2.399 2.4h4.528l2.402-2.4-4.665-4.665z" fill="#e4e3df"/>
    </g>
    <g clip-path="url(#a)">
     <g transform="translate(349.95 534.51)">
      <path d="m0 0c-0.204 0-0.31 0.144-0.31 0.348 0 0.083 0.06 0.091 0.06 0.189 0 0.038-0.128 0.045-0.181 0.045-0.363 0-0.598-0.438-0.598-1.195v-0.854h0.613v-0.174h-0.613v-2.647h0.613v-0.174h-1.785v0.174h0.583v2.647h-0.583v0.174h0.583v0.37c0 1.294 0.536 1.838 1.263 1.838 0.295 0 0.635-0.136 0.635-0.491 0-0.152-0.151-0.25-0.28-0.25" fill="#e4e3df"/>
     </g>
     <g transform="translate(350.55 532.7)">
      <path d="m0 0c-0.151 0-0.274 0.122-0.274 0.273s0.123 0.274 0.274 0.274 0.274-0.123 0.274-0.274-0.123-0.273-0.274-0.273" fill="#e4e3df"/>
     </g>
    </g>
   </g>
  </g>
  <g transform="matrix(.21165 0 0 .21165 -118.46 182.66)">
   <image x="-141.19" y="38.502" width="236.27" height="220.66" image-rendering="optimizeQuality" preserveAspectRatio="none" xlink:href="data:image/png;base64,iVBORw0KGgoAAAANSUhEUgAAA30AAANCCAYAAADSpqXBAAAABHNCSVQICAgIfAhkiAAAIABJREFU eJzs3Xmc3HVh//H3bkKySaGKgqK24FYKHigrtaW0iBc3yKkIHlhKlFqUeiBEq9Witti7tlVao6KI imKFFisgiiiKAqLgOUEM4gVyXyG7yc78/tjsj6jJHtnZ+cx85vl8PPKQPWbm/cg/8fX4zHy/CQAA AAAAAAAAAAAAAAAAAAAAAAAAAAAAAAAAAAAAAAAAAAAAAAAAAAAAAAAAwHoDpQcAAOWsveJN27Vu /9Z+zTu+t13GRxeU3gMlvfW0fT6w/j/vOH3VitGiY6CNFpYeAAB0ztqvvvWRzZ9eenjrnhsfliTj 3z/rJUkeX3gWdIuHr//fi5YPL7tM+FELJ30AULm1l79++/EfXXRkxu5ekkTkwSa89bR9Jv/zmiRv THLZ6atWrCm3CNpD9AFApUbPffrerXtv+oMIPZiRDaIvSb6RifD7gvCj13l7JwBUZO2Xlz9m/Ib/ fnHGRxe07r1J7MHme2qSv0nysiRfL7wF5mSw9AAAYO7Wfum1w2vO/J3l4ys/eknGR09P8o4IPpir pyY5ePnwsqHSQ2AuRB8A9LC1V7xpuzVn/s7y8R988v/SGv/bCD1ot8OSPEf40ctcmhkAetSaDz/p sNYvrj4raR2dZJvSe6DXfeGyx23s29sleWKSH+259W4/vvyua9Z1dhXMnZM+AOgxo+cfuOeaD+zw xqy9z8kedMZIkrcn2Xv58LIlpcfAbLmQCwD0kDUffNxRrTu+89cRe9BpuyZ5W5Kbk1xVeAvMipM+ AOgBYxcctvuaD+zwxjTXCT4oZ9ckz3XaR68RfQDQ5dac/eRDmrd+48y4Iid0g0OT7Cf86CWiDwC6 2JoPPPYFGbvnnRF70C2ekuSvk+y/fHjZ0tJjYCZ8pg8AutDYZSc9rvnD81+QtNxgHbrPZPj9LMnX Cm+BaTnpA4AuM/aZo57W/OH5F8TbOaGbPTkTn+9z2kfXE30A0EVG//eQ3Zs3f+2siD3oBYckOVD4 0e1EHwB0idHz9t2rddu1Z0bwQa94cpK3JDlI+NHNRB8AdIHR8/d/euvOxn9G8EGv2SXJX2Ui/H6j 9BjYGNEHAIWNXXD47q07vvdfEXzQq3bJxInfU0oPgY0RfQBQ0NjnXvaE5q3XnBnBB73uSZm4sIvT PrqO6AOAQtZe+bZtmjdd/N8RfFCLQ5IcIvzoNqIPAAoZ/86Kl0fwQU2elORNSQ4VfnQT0QcABaz5 0E7PS/KS0juAtntikr/MRPhtWXoMJKIPADpu9L+f9ayMj74tTvmgVk/MxInfrqWHQCL6AKCj1n75 1N9q3f3Dd0fwQe2ekInP9zntozjRBwAdNL7yY8dG8EG/OCTJ4cKP0kQfAHTI6Dm77x+f44N+8vgk b0xypPCjJNEHAB2w9qtveWRr9c3/HKd80G8en2R5kqeWHkL/En0A0AHj3//Qn0bwQb96fCY+37dV 6SH0J9EHAPNs7MJjnppW89jSO4CinpvkecKPEkQfAMyz5s+/ckCc8kG/2zkTb/PcrfQQ+o/oA4B5 NHr+AXvGxVuACTvF2zwpQPQBwDxq3fHdveKUD3jQwUlesHx42W+WHkL/EH0AME9G//eQ3eOUD/hl OyU5JcKPDhJ9ADBPWrdd+5w45QN+3e8meX2So4UfnSD6AGAejH3+hJ3jlA/YtMnw+73SQ6if6AOA edD88SWHxykfMLUdkxzqtI/5JvoAYD401/k3FpiJg5K8aPnwsoeUHkK9/IMEAG02+t/PeWa8tROY mR2TvC7Cj3kk+gCgzVp3/+CP4q2dwMw9Lslrkzyt9BDqJPoAAKC8x2Xi831O+2g70QcAbTR63n5P j7d2ApvnoCTHCj/aTfQBQBu17vz+0+OtncDm+Z0kr0ny0uXDyx5aegz1EH0AANA9hpO8OsKPNhJ9 ANAma7/02uF4aycwd8NJ/iLJ75ceQh1EHwC0SfMXX98v3toJtMdwJi7s4rSPORN9ANAmrXtufFjp DUBVDkryp8KPuRJ9AADQnR6b5KQkxy8fXrZ14S30MNEHAADda4ckr0ryB6WH0LtEHwC0wdovv+Ex cREXYH7skInP9zntY7OIPgBog9Y9P3xmXMQFmD8HJXmZ8GNziD4AaIPW6pu3Kr0BqNr2SU5M8nLh x2yJPgBog9Z9P31I6Q1A9SbD74Tlw8tcLZgZE30A0A7NtQtKTwD6wm8n+fMku5ceQu8QfQAA0Ft+ O8lhTvuYKdEHAAC958AkrxB+zIToAwCA3vNbSf4syZ8LP6Yj+gAAoDdNht+Jy4eXPbz0GLqX6AMA gN71mCQnJPnD0kPoXqIPAAB622MycWEXp31slOgDAIDed2CSVwk/Nkb0AQBA73t0kpclOUn48atE HwAA1GEy/P6o9BC6i+gDAIB6PCrJ4cuHl21TegjdQ/QBAEBdDkjyF8KPSaIPAADqsl2SZUleI/xI RB8AANRouyTHJ3mt8EP0AQBAnR6Z5E+T/HHpIZQl+gAAoF6PzMSFXbYtPYRyRB8AANTtgCSvE379 S/QBAEDdHpHkuCSvF379SfQBAED9HpHkT5KcIvz6j+gDAID+sG2SlyZ5eukhdJboAwCA/rFtJi7s 8ojSQ+gc0QcAAP1l/ySnCr/+IfoAAKC/bJPk2CRvEH79QfQBAED/2SbJS5K8UfjVT/QBAEB/eniS FyfZq/QQ5pfoAwCA/vXwJEcsH172yNJDmD+iDwAA+tt+Sf5S+NVL9AEAQH97WJIXJXmT8KuT6AMA AB6W5IVJnlF6CO0n+gAAgGQi/I5YPrxsu9JDaC/RBwAATNovyV8Jv7qIPgAAYNJDkxyT5C3Crx6i DwAA2NBDkxyd5K3Crw6iDwAA+FWT4ffMwjtoA9EHAABszEMycWGXR5UewtyIPgAAYFP2S3Ka8Ott og8AANiU30xyVJK3Cb/eJfoAAICp/GaS5yd5u/DrTaIPAACYzmT4Pav0EGZP9AEAADOxVZIjlw8v e3TpIcyO6AMAAGZq3yR/I/x6i+gDAABmasskRyb5W+HXO0QfAAAwG1smOSLJs0sPYWZEHwAAMFtb xuf7eoboAwAANsc+Sf5u+fCyx5QewtREHwAAsDl+I8nhEX5dT/QBAACba2mSw5L8vfDrXqIPAACY i6VJDk2yd+khbJzoAwAA5mppkiOc9nUn0QcAALTDPkn+afnwst8qPYRfJvoAAIB2WJLkkHibZ9cR fQAAQLsMZeL+fU77uojoAwAA2mmfJP8i/LqH6AMAANppcZKDk/yr8OsOog8AAGi3xUkOSrJv6SGI PgAAYH4szsTn+3679JB+J/oAAID5sneSfxN+ZYk+AABgvixKcmCSfxd+5Yg+AABgPm2R5IAIv2JE HwAAMN8mw2+/0kP6kegDAAA6YYskz1s+vGz70kP6jegDAAA65TlJ3iP8Okv0AQAAnbIwE2/xPEP4 dY7oAwAAOmlBJm7avn/pIf1C9AEAAJ22IBOf79uh9JB+IPoAAIASnpPkv4Tf/BN9AABACYNJ9o7w m3eiDwAAKGUwyT5JVgi/+SP6AACAkgYy8VbPA0oPqZXoAwAAShtI8vzlw8seW3pIjUQfAADQDZ6d 5H3Lh5cNLx9eVnpLVUQfAADQLZ6dZEUS4ddGog8AAOgmz07yviTDpYfUQvQBAADd5llJDnDa1x6i DwAA6EbPT7Lj8uFlA6WH9DrRBwAAdKNnJnlvkt8VfnMj+gAAgG71zCT/meR3Cu/oaaIPAADoZs9M cqDTvs0n+gAAgG53ZJKdhd/mEX0AAEC3e0Ym3ub5+OXDyzTMLPkLAwAAesFeSc5I8gThNzv+sgAA gF6xV5J3J3lc6SG9RPQBAAC9ZK9MXNhFy8yQvygAAKDXHJnkScJvZvwlAQAAvebpmXib5y7Lh5ct KD2m24k+AACgF+2Z5D8i/KYl+gAAgF61Z5J/T7Jj6SHdTPQBAAC9bM8kBznt2zTRBwAA9Lojkuwq /DZO9AEAAL3uj5P8W5KR5cPLFpYe021EHwAAUIM/SvKuJL9beki3EX0AAEAt/igTn+9z2rcB0QcA ANTkiCS7Cb8HiT4AAKAmeyT5lyS/J/wmiD4AAKA2k+H3tOXDy7YoPaY00QcAANToD5P8c5KdSg8p TfQBAAC1+sMkB/f7aZ/oAwAAanZ4kj/o5/ATfQAAQM12T/KPSXbv1/ATfQAAQO0mw+8Plw8vW1R6 TKeJPgAAoB/8QZJ/SPL40kM6TfQBAAD94g+SHNRvp32iDwAA6CeHJ/mjfgo/0QcAAPST30/yd0n+ uF/CT/QBAAD9ZjL89lw+vGxx6THzTfQBAAD96GlJ3pnkCaWHzDfRBwAA9KunJTm49tM+0QcAAPSz w5LsVXP4iT4AAKCf/V6Sv03yjFrDT/QBAAD9bjL8nlR6yHwQfQAAAMlumfh831DpIe0m+gAAACYc luRZtYWf6AMAAJjw1CTvSPLsmsJP9AEAADyouvATfQAAAL9sJBPht0vpIe0g+gAAAH7dSJLnLh9e tqT0kLkSfQAAABt3aJK9ez38RB8AAMDG7ZrkbUn27eXwE30AAACbtmuS09LD4Sf6AAAApvaUTITf k0sP2RyiDwAAYHpPycSFXZaWHjJbog8AAGBmDk2yf6+Fn+gDAACYmScneWuSA3sp/EQfAADAzD05 yVsy8XbPniD6AAAAZmeXTHy+7zdKD5kJ0QcAADB7hyY5uBfCT/QBAADM3pOSvDk9EH6iDwAAYPNM ht+upYdMRfQBAABsvielyz/fJ/oAAADm5pAkhy4fXrZl6SEbI/oAAADm5olJ3pQufZun6AMAAJi7 JyQ5pBtP+0QfAABAexyS5PBuCz/RBwAA0B6PT/LGJEd0U/iJPgAAgPZ5fJI3JDly+fCyrUqPSUQf AABAu02G31NLD0lEHwAAwHzYORMXdil+2if6AAAA5sdzkzy/dPiJPgAAgPmxU5JTkxxVMvxEHwAA wPzZKckpSXYrNUD0AQAAzK+dkhy6fHjZb5Z4cdEHAAAw/w5OcnSJ8BN9AAAA8+93k7w+yTGdDj/R BwAA0Bk7Jjk5yQs7GX6iDwAAoHN2TPK6JE/r1AuKPgAAgM7aMRMXdnlIJ15M9AEAAHTeQUle3Inw E30AAACd97gkr03ykvkOP9EHAABQxu8keU2SY+cz/EQfdIl1Xz3xcc3vn7pd6R0AAHTUZPj9/ny9 wML5emJg5kY/+tSD133vgr9fuNOe9zev3Oc/NvpLg0vWZvG292fRI74yuPPf3tLhiQAAzJ/hTFzY 5erTV624q91PLvqgsNGPPvXg1po7/j7J49etvDwLd9rz/YNb/OLXf7H5QPLATckDN32zeeU+79ro ky1YOpZF267Oom2FIQBAbzkoyQ3Lh5ed2e7wG2jnkwGzs2Hwbfj9hTvtmY2G38x9M8kmwnDLsSza 5v4s2vaKwZ3/RhhCm6z5wA5vTPKO0juAzffW0/YpPQFuzMT/h/tAO8PPSR8UsqngS5L1J35zCb+R JO/f6E/G70seuC954MYpTgyFIQBAAY9NclKS7yS5uF1PKvqggKmCb1Ibwm86cwvDhVuNZtG292eL bb46uPM7hCEAQHs8NhOf77vq9FUr7mzHE4o+6LCZBN+kDoTfdDYdhuvunfiTHwpDAID2OijJquXD y97XjvATfdBBswm+SV0QftOZYxg+ZE0WbbM6i7b5yuBOb791/mYCAPSMHZK8MsnA8uFlK+Yafi7k Ah2yOcG3oS4Pv3bY9MVnFj5kTRZte38WbfuVwZ1Ou62zs2BmXMgFep8LudCFbkryH0neO5fwc9IH HTDX4Et64sRvrqY4Mbx74s/qH2z6xHCLhz6QLbZZLQwBgIpsn+TEJNcluXBzn0T0wTxrR/BN6oPw m86mw3DtXRN/pgzDrR+YODHc5iuDv/vXt8/jTgCAdtk+yWHLh5ddefqqFXdszhOIPphH7Qy+ScJv WlOE4Z0Tf+5fKQwBgF5yYJIblw8v+6/NCT+f6YN5Mh/BtyHhN+9++TOGS3b48uCTV6wsN4du5zN9 0Pt8po8u9+MkZyQ5Y7bhNzg/e6C/zXfwJRMnfs21j5ivp+fBE8OJPw/86JzmtS/dufAmAKB//XaS VyR5xfLhZQ+bzQNFH7RZJ4JvkvDrqJGM/uxjzW8es0vpIQBA3/qtJH+W5A9n8yDRB23UyeCbJPw6 aiRjt53VvOZ5u5YeAgD0rd/KxIVdHj7TB4g+aJMSwTdJ+HXUSNbdfWbz64fuVnoIANC3Dkzy5zMN P9EHbVAy+CYJv44ayfjq9zWvPvhppYcAAH3pMUlOSPLKmYSf6IM56obgmyT8OmokzdH3Nq86YPfS QwCAvvSYJC9Pssd0vyj6YA66KfgmCb+OGklr3RnCDwAo5NGZuKrnlEQfbKZuDL5Jwq+jJsLvyn2F HwDQlUQfbIZuDr5Jwq+jRpLWGc0r95n27RUAAJ0m+mCWeiH4Jgm/jhpJ8m7hBwB0G9EHs9BLwTdJ +HWU8AMAuo7ogxnqxeCbJPw6SvgBAF1F9MEM9HLwTRJ+HSX8AICuIfpgGjUE3yTh11GT4Xdcc+Wb ty09BgDoX6IPplBT8E0Sfh01kuT9ueurFze/f/KjS48BAPqT6INNqDH4Jgm/jhvJPdd+uvndk7Yv PQQA6D+iDzai5uCbJPw6biT3fe/85rf/7HGlhwAA/UX0wa/oh+CbJPw6biSrbzi3+a3jdyo9BADo H6IPNtBPwTdJ+HXcSB646ZzmtS/dufQQAKA/iD5Yrx+Db5Lw67iRjP7sY81vHrNL6SEAQP1EH6S/ g2+S8Ou4kYzddlbzmuftWnoIAFA30UffE3wPEn4dN5J1d5/Z/Pqhu5UeAgDUS/TR1wTfrxN+HTeS 8dXva1598NNKDwEA6iT66FuCb9OEX8eNpDn63uZVB+xeeggAUB/RR18SfNMTfh03kta6M5pX7Sf8 AIC2En30HcE3c8Kv40bSap7RvHJf4QcAtI3oo68IvtkTfh03krTOaF65zx6lhwAAdRB99A3Bt/mE X8eNJHm38AMA2kH00RcE39wJv44TfgBAW4g+qif42kf4dZzwAwDmTPRRNcHXfsKv44QfADAnoo9q Cb75I/w6bjL8jmuufPO2pccAAL1F9FElwTf/hF/HjSR5f+766sXN75/86NJjAIDeIfqojuDrHOFX xEjuufbTze+8cofSQwCA3iD6qIrg6zzhV8RI7m+c1/z2CY8rPQQA6H6ij2oIvnKEXxEjWf3Dc5vX HbdT6SEAQHcTfVRB8JUn/IoYyZqfnNO89iVPKD0EAOheoo+eJ/i6h/ArYiSjN3+k+c1jdik9BADo TqKPnib4uo/wK2IkY7ed1bzmebuWHgIAdB/RR88SfN1L+BUxknV3n9n8+qG7lR4CAHQX0UdPEnzd T/gVMZLx1e9rXn3w00oPAQC6h+ij54x+dDfB1yOEXxEjaY6+t3nVAbuXHgIAdAfRR08ZPWf3/Vtr bhd8PUT4FTGS1rozmlfuK/wAANFH7xg9Z/f9W6tv/ucIvp4j/IoYSVrCDwAQffQGwdf7hF8R68Nv nz1KDwEAyhF9dD3BVw/hV8RIkncLPwDoX6KPrib46iP8ihB+ANDHRB9dS/DVS/gVIfwAoE+JPrqS 4KvfupWXp7XukaVn9BvhBwB9SPTRdQRf/1jb+FJazceUntFvJsPvuObKN29begwAMP9EH11F8PWf td+7NK3mo0rP6DcjSd6fu756cfP7Jz+69BgAYH6JPrqG4Otfa793mfArYyT3XPvp5ndeuUPpIQDA /BF9dAXBh/ArZiT3N85rfutlO5YeAgDMD9FHcYKPScKvmJE8cOMnmtf9yc6lhwAA7Sf6KErw8auE XzEjWfPTjzW/+eInlh4CALSX6KMYwcemCL9iRjJ2y9nNbxy9S+khAED7iD6KEHxMR/gVM5K1t5/V vOZ5u5YeAgC0h+ij4wQfMyX8ihnJurvPbH790N1KDwEA5k700VGCj9kSfsWMZHz1+5pXH/y00kMA gLkRfXSM4GNzCb9iRtIcfW/zqgN2Lz0EANh8oo+OEHzMlfArZiStdWc0r9xX+AFAjxJ9zDvBR7sI v2JGktYZzSv32aP0EABg9kQf80rw0W7Cr5iRJO8WfgDQe0Qf80bwMV+EXzHCDwB6kOhjXgg+5pvw K0b4AUCPEX20neCjU4RfMcIPAHqI6KOtBB+dJvyKEX4A0CNEH20j+ChF+BUzGX7HNVe+advSYwCA jRN9tIXgozThV8xIkvfnrq9d3Pz+yY8uPQYA+HWijzkTfHQL4VfUSO659tPN77xyh9JDAIBfJvqY E8FHtxF+RY3k/sZ5zW+9bMfSQwCAB4k+Npvgo1sJv6JG8sCNn2he+9KdSw8BACaIPjaL4KPbCb+i RjL6s481v/nCXUoPAQBEH5tB8NErhF9RIxm79azmN14g/ACgMNHHrAg+eo3wK2oka+84q3nN83Yt PQQA+pnoY8YEH71K+BU1knV3n9n8+qG7lR4CAP1K9DEjgo9eJ/yKGsn46vc1rz74aaWHAEA/En1M S/BRC+FX1Eiao+9tXnXA7qWHAEC/EX1MSfBRG+FX1Eha685oXrmv8AOADhJ9bJLgo1bCr6iRpHVG 88p99ig9BAD6hehjowQftRN+RY0kebfwA4DOEH38GsFHvxB+RQk/AOgQ0ccvEXz0G+FXlPADgA4Q ffx/go9+JfyKEn4AMM9EH0kEHwi/oibD77jm9adtXXoMANRG9CH4YD3hV9RIkvfnzi99vtn4y0eW HgMANRF9fU7wwS8TfsWN5O4rL2x+/+RHlx4CALUQfX1M8MHGCb/iRnLPtZ9ufueVO5QeAgA1EH19 SvDB1IRfcSO5v3Fe81sv27H0EADodaKvDwk+mBnhV9xIHrjxE81rX7pz6SEA0MtEX58RfDA7wq+4 kYz+7GPNbx6zS+khANCrRF8fEXyweYRfcSMZu+2s5jee/5TSQwCgC225fHjZwql+QfT1CcEHcyP8 ihvJ2rs+2LzmiKeWHgIAXeaIJFN+FEL09QHBB+0h/Iobybp739/8+qG7lR4CAF3kD5PsNdUviL7K CT5oL+FX3EjGV7+vefXBTys9BAB6heirmOCD+SH8ihtJc/S9zasO2L30EADoBaKvUoIP5pfwK24k rXVnNK/cV/gBwDREX4UEH3SG8CtuJGmd0bxynz1KDwGAbib6KiP4oLOEXwHjrTTXLE3znm2y7heP GFm7assT1372lIeVngUA3WrK+znQWwQflLH2e5dliyc8IwODPy89pSqttQNprXtIWqOL0lw9ntb9 96V1921p3XvLhr/WGNx+j3/dYp+/u6PUTgDodqKvEoIPyhJ+m6mVtNYuSmtsyzRHF6S1em1a996d 5l0/T0bvm+7RjcFH73b80DEfuaoTUwGgV4m+Cgg+6A7CbwrjrTTXbZnW6JK01gykdd8Dad57R1p3 /SxprtucZ2wMPmrXZUMv+eSX2z0VAGoj+nqc4IPu0u/h1xpLWuMPSWvNojQfaKZ1371p3XNbWvf+ op0v0xjcZqcTh4497/J2PikA1Er09TDBB92p+vBrtdIaW5zWuq3SXDM48ZbMe+5K8+6fJ6P3z/er Nwa2fuxJQ8df9Ln5fiEAqIXo61GCD7pbFeG3rpXmuq3SGluS1gOttO5fk+Y9t6d198+S5niJRY2B h27/6iUvv/TiEi8OAL1K9PUgwQe9oVfCr7V2MK21vzlxlcwHxtO699607v5FWvffVnrahhoDW253 8pITLruw9BAA6DWir8cIPugtXRN+rVZaa5ekNfYbE2/JvH8srXvXvyVzbHXZbdNrDCx92PIlJ15x QekhANCLRF8PEXzQmzoafutaaa7dKq2xobTWZOIqmffcmtY9t5R6S+ZcNQaWbP2GJa/6+nmlhwBA rxJ9PULwQW9rd/i1xhakte430xrdIs3Va9O69/607rklrftvb8vzd4lGFm355iUnXfOp0kMAoJeJ vh4g+KAOsw6/ZivNtUPJ2i3TfGAwrdVjad1zR5p335ysfWB+x5bXyMKhtyx9zbc+UXoIAPQ60dfl BB/UZWPh1xpPWmNbpbV2KK3VrbTuX53m3bemdc8vJn7YfyaC73XfO6f0EACogejrYoIP6rT2e5dl cOs90rzn7rTuuiWtB+4sPambNDK48G2CDwDaR/R1KcEHFVuwS9Y1vlZ6RTdqZGDw7Utff/3ZpYcA QE0GSw/g1wk+qNiCXdL8+XdLr+hGE8F3yg0fLj0EAGoj+rqM4IOKCb5NaSR5h+ADgPkh+rqI4IOK Cb5NmQi+U1edVXoIANRK9HUJwQcVE3ybIvgAoANEXxcQfFAxwTeVswUfAMw/0VeY4IOKCb6pNBb+ wcvPKD0CAPqB6CtI8EHFBN9UGgtHXrT3ome94dbSQwCgH4i+QkY/8cf7CD6olOCbSmPBLkcetGi/ t/+k9BAA6Beir4DRc/fau3XfT94VwQf1EXxTaSx4wnMPWXzQP9xQeggA9BPR12Gj5+61d+veH/1b BB/UR/BNpbFgx+cctfiQd60sPQQA+o3o6yDBBxUTfFNpDD52zxcvPnLFdaWHAEA/En0dIvigYoJv Ko3B7fd4ydALzrq69BAA6FeirwMEH1RM8E2lMfioXZcNHfORq0oPAYB+JvrmmeCDigm+qTQGH/GE Vwwde97lpYcAQL8TffNI8EHFBN9UGoPb7HTi0HH/d2npIQCA6Js3gg8qJvim0hh46PavHjr+os+V HgIATBB980DwQcUE31QaA1s96uQlJ1x2YekhAMCDRF+bCT6omOCbSmNgy+1OXvLnX7mg9BAA4JeJ vjYSfFAxwTeVxsCSrd+w5MQrBB8AdCHR1yaCDyom+KbSGFi81ZuWnHTNp0oPAQA2TvS1geCDigm+ qTSyaMs3L3n1deeWHgIAbJromyPBBxUTfFNpZOHQW5a+5lufKD0EAJh6v8KCAAAgAElEQVSa6JsD wQcVE3xTaWRw4duWvu5755QeAgBMT/RtJsEHFRN8U5kIvtdff3bpIQDAzIi+zSD4oGKCbyqNDAy+ XfABQG8RfbMk+KBigm8qjSTvWHrKDR8uPQQAmB3RNwuCDyom+KYyEXynrjqr9BAAYPZE3wwJPqiY 4JuK4AOAHif6ZkDwQcUE33TOFnwA0NtE3zQEH1RM8E2nsXD3P3tP6REAwNyIvikIPqiY4JtOY+Fu L332omeeelvpIQDA3Ii+TRB8UDHBN53GwpEX7rton7f+rPQQAGDuRN9GCD6omOCbTmPBEw85ZNF+ 77ip9BAAoD1E368QfFAxwTedxoLf3e95i5/7rytLDwEA2kf0bUDwQcUWPFHwTa2xYMfnHLX4iDO+ XXoIANBeom89wQf1Gli0S5o//37pGd2sMbj9Hi9ZfOSK60oPAQDaT/RF8EHNBhbtkvGfOOGbQmPw 0bsdP3TMR64qPQQAmB99H32CD+ol+KbVGHzUrsuGXvLJL5ceAgDMn76OPsEH9RJ802oMbrPTiUPH nnd56SEAwPzq2+gTfFAvwTetxsDDhl81dPxFnys9BACYf30ZfYIP6iX4ptUYeOj2r17yss9/tvQQ AKAz+i76BB/US/BNqzGw5XYnLznhsgtLDwEAOqevok/wQb0E37QaA0sfvnzJiVdcUHoIANBZfRN9 gg/qJfim1RhYsvUblrzq6vNKDwEAOq8vok/wQb0E37QaWbTlm5ecdM2nSg8BAMqoPvoEH9RL8E2r kS2WvGXpa771idJDAIByqo4+wQf1EnzTamTh0FuWvva755QeAgCUVW30CT6ol+CbViODC9+29HXf E3wAQJ3RJ/igXoJvWo0MDL596euvP7v0EACgO1QXfYIP6iX4pjURfKfc8OHSQwCA7lFV9Ak+qJfg m1YjyTsEHwDwq6qJPsEH9RJ805oIvlNXnVV6CADQfaqIPsEH9RJ80xJ8AMCUej76BB/US/DNyNmC DwCYSk9Hn+CDegm+GWks3P2E95QeAQB0t56NPsEH9RJ8M9JYOPKivRc9c/ltpYcAAN2tJ6NP8EG9 BN+MNBbscuRBi/Z7+09KDwEAul/PRZ/gg3oJvhlpLHjiIYcsPugfbig9BADoDT0VfYIP6iX4ZqSx YMfnHLX4uf+6svQQAKB39Ez0CT6ol+CbkcbgY/d88eIjV1xXeggA0Ft6IvoEH9RL8M1IY3D7PV4y 9IKzri49BADoPV0ffYIP6iX4ZqQx+Khdlw0d85GrSg8BAHpTV0ef4IN6Cb4ZaQw+4gmvGDr2vMtL DwEAelfXRp/gg3oJvhlpDG6z04lDx/3fpaWHAAC9rSujT/BBvQTfjDQGHrr9q4eOv+hzpYcAAL2v 66JP8EG9BN+MNAa2etTJS0647MLSQwCAOnRV9Ak+qJfgm5HGwJbbnbzkz79yQekhAEA9uib6BB/U S/DNSGNgydZvWHLiFYIPAGirrog+wQf1Enwz0hhYvNWblpx0zadKDwEA6lM8+gQf1EvwzUgji7Z8 85JXX3du6SEAQJ2KRp/gg3oJvhlpZOHQW5a+5lufKD0EAKhXsegTfFAvwTcjjQwufNvS133vnNJD AIC6FYk+wQf1EnwzMhF8r7/+7NJDAID6dTz6BB/US/DNSCMDg28XfABAp3Q0+gQf1EvwzUgjyTuW nnLDh0sPAQD6R8eiT/BBvQTfjEwE36mrzio9BADoLx2JPsEH9RJ8MyL4AIBi5j36BB/US/DN2NmC DwAoZV6jT/BBvQTfjDUW7v5n7yk9AgDoX/MWfYIP6iX4Zqyx8Pf+5JmLnnnqbaWHAAD9a16iT/BB vQTfjDUWjrxw30V7v+Xm0kMAgP7W9ugTfFAvwTdjjQVPPOSQRfu946bSQwAA2hp9gg/qJfhmrLFg p/2OWPzcf11ZeggAQNLG6BN8UC/BN2ONBTs+56jFh5/hLwsA6BptiT7BB/USfDPWGNx+j5csPnLF daWHAABsaM7RJ/igXoJvxhqDj9ntuKFjPnJV6SEAAL9qTtE3+ql99hJ8UCfBN2ONwUftumzoxZ+8 ovQQAICN2ezoGz1v371ad638zwg+qI7gm7HG4DY7nTh07HmXlx4CALApmxV9o+ftu1frzobggwoJ vhlrDDxs+FVDx1/0udJDAACmMuvoE3xQL8E3Y42Bh27/6iUv+/xnSw8BAJjOrKJP8EG9BN+MNQa2 3O7kJSdcdmHpIQAAMzHj6BN8UC/BN2ONgaUPX77kxCsuKD0EAGCmZhR9gg/qJfhmbmDJ1iuWvOrq 80rvAACYjYXT/YLgg4ot3C6tLMzgbz3l13/WaiXjo7N+yta6saTVnN2DxseT5rpZvlArWbcZ+8Y3 Z9+6ZMHCLPy9I76ZXDPr16R+a69483bj3//QS0rvAICNmTL6BB9Ubt3NSW5u61MObM41gRe0dcKU Bjb7kWszvvK9/7bmAzuc1cY5VGJ98Pm3EoCuNGX0te5s7Bn/iAFMenySd5QeAQAwG5t9c3YAAAC6 n+gDAAComOgDAAComOgDAAComOgDAAComOgDAAComOgDAAComOgDAAComOgDAAComOgDAAComOgD AAComOgDAAComOgDAAComOgDAAComOgDAAComOgDAAComOgDAAComOgDAAComOgDAAComOgDAACo mOgDAAComOgDAAComOgDAAComOgDAAComOgDAAComOgDAAComOgDAAComOgDAAComOgDAAComOgD AAComOgDAAComOgDAAComOgDAAComOgDAAComOgDAAComOgDAAComOgDAAComOgDAAComOgDAACo mOgDAAComOgDAAComOgDAAComOgDAAComOgDAAComOgDAAComOgDAAComOgDAAComOgDAAComOgD AAComOgDAAComOgDAAComOgDAAComOgDAAComOgDAAComOgDAAComOgDAAComOgDAAComOgDAACo mOgDAAComOgDAAComOgDAAComOgDAAComOgDAAComOgDAAComOgDAAComOgDAAComOgDAAComOgD AAComOgDAAComOgDAAComOgDAAComOgDAAComOgDAAComOgDAAComOgDAAComOgDAAComOgDAACo mOgDAAComOgDAAComOgDAAComOgDAAComOgDAAComOgDAAComOgDAAComOgDAAComOgDAAComOgD AAComOgDAAComOgDAAComOgDAAComOgDAAComOgDAAComOgDAAComOgDAAComOgDAAComOgDAACo mOgDAAComOgDAAComOgDAAComOgDAAComOgDAAComOgDAAComOgDAAComOgDAAComOgDAAComOgD AAComOgDAAComOgDAAComOgDAAComOgDAADobbsuH172sE39UPQBAAD0tgOT7L6pH4o+AACA3vbb SR67qR+KPgAAgIqJPgAAgIqJPgAAgIqJPgAAgF4xMPuHiD4AAIAeMTA4+4QTfQAAAD1icKHoAwAA qNbipUOzfozoAwAA6BFDWy2Z9WNEHwAAQA8YWDCQ+++4d9aPE30AAAC9oJmM3rdm1g8TfQAAAD2g 1Wpt1uNEHwAAQMVEHwAAQMVEHwAAQMVEHwAAQMVEHwAAQMVEHwAAQMVEHwAAQMVEHwAAQMVEHwAA QMVEHwAAQMVEHwAAQMVEHwAAQMVEHwAAQMVEHwAAQMVEHwAAQMVEHwAAQMVEHwAAQMVEHwAAQMVE HwAAQMVEHwAAQMVEHwAAQMVEHwAAQMVEHwAAQMVEHwAAQMVEHwAAQMVEHwAAQMVEHwAAQMVEHwAA QMVEHwAAQMVEHwAAQMVEHwAAQMVEHwAAQMVEHwAAQMVEHwAAQMVEHwAAQMVEHwAAQMVEHwAAQMVE HwAAQMVEHwAAQMVEHwAAQMVEHwAAQMVEHwAAQMVEHwAAQMVEHwAAQMVEHwAAQMVEHwAAQMVEHwAA QMVEHwAAQMVEHwAAQMWmi75VSb7fiSEAAABsli8kuWhTP1w41SOHjvvRR0fPe9m3Wnf+aM/133pF kqe0bxsAVGDR4mTsutIrAOhPX0jy8kwc2G3UlNGXJIsPe++3k3w7SdacfdQ3mj/9+r5pNZPkRUl2 bstMAOhhA1tvn4EtSq8AoA9dmong+8Hpq1Zs8pemjb4NDb3o419L8rUkGf3EcReM/+jLB2Z87WAE IAAAQKedm2mCL5ll9G1o8fM/8I0k30iS0fNf+fHxGy49PGtXbxEBCAAAMN8uTfKZ6YIvmUP0bWjx of/eSHJ6koz+3ylnN39wyRGtB+5cEgEIAADQbp9PsixTfI5vQwPzuWTss2999Pj1Fx/VuvfnW0UA AlCpic/03Vh6BjBHbz1tn9ITYCY+n+T4JDfO5JQvmefo29DYZX/38PGVFx3duuOHD1v/LREIQBVE H9RB9PWiVjqYNN3gc0mOP33Vih/N5kFteXvnTCx6xim3J/mPya/XfPCQLzRv/tYz138pAAEAgM3Q N+HXSnLubIMv6WD0/aqhl/7Pl5J8KUnWfPSYC5s/vnJ/t4IAAAD4Nc1MnPJ9ZnMeXCz6NjR0zEev SnJVkoyee/z54zdefnDGxxZEAAIAAJvUFyd8zSSXJHn55pzyJV0SfRta/Lz3XZfkuiQZPf9VHx// 4RcOy9h9iyIAAQCA/tJM8tkkJ2xu8CU9lMajnzl1uPmDS45orb5jaQQgAF3EhVygDi7kQhf6bJJl p69acdNcnqTrTvo2ZfEB71yV5B+TZOxzb/uv8ZUXvqB1z88eEgEIAADUZzwTF26ZU/AlPRR9G1r0 nDffkuRdSTL2xX/89/GVFx3duv36bdb/WAQCAAC9bF2Si5Nc2I4n68no29CivV53Z5L3TH695kOH Xdr8+bXPWv+lAAQAAHrJuiQXJfnzdpzyJRVE368aOva8y5NcniRrPvbCzzRvunL/tMYHIgABAIDu ti4Tp3sntiv4kgqjb0NDR3/k6iRXJ8noJ5dN3Api3ahbQQAAAN3okkyc8P24nU9adfRtaPGRKx68 FcT/nHTO+A2XHu5WEAAAQJdYm4kLt7Q1+JI+ir4NLT7kXSuTvDNJxi584wfHr7/4+a3Vt7sVBAAA UMJYks9k4uItbdcz9+nrhLHPv/2R4ysvekHr7p88ZP23RCAA03KfPqiD+/RRyFiS/0ty0nyc8iV9 etK3KYue/ab/fyuIJFnzvv2+0rxt5R+t/1IAAgAA7TSW5NNJ/mK+gi8RfVMaOv6izyX5XJKs+dDh 628F0UoEIAAAMHefzcQJ30/m80VE3wwNHfupDW4F8aLPNH/8tf3TdCsIAABgs4wm+eR8B18i+jbL 0NFnP3griP8+4VPjqy47xK0gAACAGVqT5IJMnPTNO9E3R4uP+M9vJ/l2koxe8JqPNn/wuSNbo/e6 FQQAALAxa5L8b5LXduKUL3H1znkzdtFfbj/+g0uObN33iy0jAAGq5uqdUAdX76QD1iT5nySv61Tw JaKvI8Y+/45Hjl9/8VGtu2566PpviUCAiog+qIPoowP+N8krTl+14qedfFFv7+yARc/+y1uS/Nvk 12vev/9Xmrc23AoCAAD6xwOZuHBLR4MvEX1FDP3phQ/eCuLDR17S/Ok39nYrCAAAqNbqJOcnuaTE i4u+woZe/MkrklyRJGvOOfbTzZu+cqBbQQAAQDVWJzkvySklTvkS0ddVhl7woWuSXJMko5/6s0+O r/rioVn7wMIIQAAA6EX3Z+KEr1jwJaKvay0+/IzvJvlukoxe8NqPNm/4/GGtNXcviQAEAIBe8dkk rz991YqflRwh+nrA4oP/6QdJ/iFJxi5+0wfGr//s890KAgAAutr9Sf67dPAloq/nLNr37T9J8s9J Mnbp354xfv1FR7Xu/NHD1v9YBAIAQHn3JflU1l+8sTTR18MWPesNtyb5j8mv13zgoC81f/Hdp6// UgACAEDn3Zfkk0ne2A2nfInoq8rQcZ/+QpIvJMmas59/cfMnX9/XrSAAAKCjLk4XBV8i+qo19KJP fC3J15Jk9OMv/fT4TVcckPG1gxGAAAAwX+5Nl3yOb0Oirw8sPuqDG9wK4hWfHF/1xUOydvUWEYAA ANAu9yY5N8nnSw/5VaKvzyw+/D0P3gri0yd/pPmDSw53KwgAAJiTezIRfG86fdWKn5ce86sGSg+g O4x99i2PGV958fNb9928VQQgwKwMbL19Bra4sfQMYI7eeto+pSfQu85NclI3Bl/ipI/1Fu3z1z9N 8i9JMvaFd75n/PqLXtC6Y5VbQQAAwNTuzsTn+Loy+BLRx0Yseuapt2XDW0Gc+dzLmrd8+xnrvxSA AAAw4e4kH09yaekhUxF9TGvoT/73i0m+mCRrzj7q4uZPv75vWs1EAAIA0N8uSvJXp69acXPpIVMR fczK0Is+/uCtID5x3AXjP/rygW4FAQBAH7orE2/r7OrgS0Qfc7D4+R/4RpJvJMno+a/8+PgNlx7u VhAAAPSBu5J8NMllpYfMhKt30naj/3fK7zR/cMkRrQfudCsIoC+4eifUwdU7maE7k3wsyWm9cMqX iD7m2dhn3/ro8esvPqp178/dCgKoluiDOog+ZuDOTJzwnXb6qhW3lB4zU6KPjhm77O8ePr7yoqNb d/zQrSCAqog+qIPoYwY+luTVvRR8ic/00UGLnnHK7dnwVhAffO5lzZvdCgIAgJ5wRyYu3NJTwZeI PgoaeukGt4L46DEXNn985f5uBQEAQBe6PclHsv7/u/Ya0UdXGDrmo1cluSpJRs89/vzxG7/0XLeC AACgC9ye5Owkf9OLp3yJ6KMLLX7e+65Lcl2SjJ7/qo+P//DSwzN2v1tBAADQabcn+XAmgu8Xpcds LtFHV1t86L81kpyeJKOfOfXDzR9cckRr9R1LIwABAJh/F6bHgy8RffSQxQe8c1WSf0ySsUtOe+/4 yguPdisIAADmyW1JPtXrwZeIPnrUor3/6uYk/5IkY1/8h38fX3nx0a3br99m/Y9FIAAAc3FrkrOS fKn0kHYQffS8RXudfGeS90x+veZDh13a/Pm1z1r/pQAEAGA2bk3yoSR/V8MpXyL6qNDQseddnuTy JFnzsRd+pnnT1w5wKwgAAGbg1iQfzETw3Vp6TLuIPqo2dPRHrk5ydZKMfnLZ+eM3Xn5w1o0uiAAE AODXXZjKgi8RffSRxUeuePBWEP9z0jnjN1x6eMbuWxQBCABA8otMXLilquBLRB99avEh71qZ5J1J MnbhGz40fv1nn9dafbtbQQAA9KdbkpyZ9R8Rqs1A6QHQTcY+//ZHjq+86AWtu3/ykAhAYIYGtt4+ A1vcWHoGMEdvPW2f0hMo45YkH0jyTzWe8iWiDzZp7Iv/uHXz+otf0Lxt5bbrvyUCgY0SfVAH0deX bkny/kwE322lx8wXb++ETVi01+vuTP5fe/caZHV933H8syi7q1HrTKdjmlbTZNJOpjN9mHaaMbWN LVqTMU28ZXSMNWmdmOZSe0nHmtTURN02pramk1q7iVWjqQYEEeSugIKCKEpUNIgnIF7xgsHLgrDb B4cV4w1Yztnf/3/O6/UEzsCD79P3fP+/3y+Xjv4euvKTO56CGEkEIABAJ5iVDg++RPTBbuv/zNTX PQVxyqzhR5cdneHtPRGAAAB19GSaF7d0dPAlog/GpP/TV+98CuL6M6Zubyw+1lMQAAC18USS7ydZ WnqQ8SD6YC/1feqy+5LclyRbZpz1o+GHFxw3smWzpyAAAKrpiSSDSS7phi1f4iIXaJutc845bPua eceNvLTxgAhA6GgucoHO4CKXrvB4dgbfs6WHGS82fdAmvUedvz7JxUmy9ebzL9u+Zu6JI5vWH7zj n0UgAMD4m5UuC75E9MG46P3oOU8l+e7o76EfHL10eONDH97xUwACALTf40mmdVvwJaIPiuj/7OwF SRYkydBVx908/PjKj3oKAgCgbR5LclmS20sPUoLog8L6T52yJMmSJBm69jMzh9cvPcZTEAAALfNY kv9O8r1u3PIlog8qpf+kK+9OcneSbJn6+SnbH1n0iWwb2jcCEABgLDZkZ/A9V3qYUkQfVFTfJy99 IMkDyY6nINbe8mcjQy/sFwEIALC7ZqXLgy8RfVALfR+/+OEkFyXJ1rlfu3z7mnknjLz4tKcgAADe 3oY0L27p6uBLRB/UTu+kb23I6FMQt1x46fafzv60pyAAAH7Bo0n+K8kdpQepAtEHNdb7R2dvzOuf grj8Y7cOP/3AR3b8FIAAQDd6NMn3klxmy9ck+qCD9J8+c2GShUkydPUJc4c33DXJUxAAQBdZn53B 93zpYapC9EGH6j/lx8uSLEuSLdedNnP7uqXHZHhbT+GxoFNtSvKFJB8sPQhAl7spgu9NRB90gb4T r3jtKQigHRoZuvy9ByY5v/QkAF1sfZoXtwi+NxB9AABA3a1L8p9JlpcepIomlB4AAABgL4wG3/dt +d6aTR8AAFBXP0vzJvMfDDQGNxWepbJs+gAAgLqaGcG3S6IPAACoo58luUHw7ZrPOwEAgLppJLkk yZ2lB6kD0QcAANRJI8l/JLnClm/3iD4AAKAuHkny70muHGgMvlB6mLpwpg8AAKiLmRF8e0z0AQAA dbA2zYtbBN8eEn0AAEDVrU1ycZIVpQepI2f6AACAKlub5N+SXG3LNzaiDwAAqKqHk3wnyTUDjcGf lx6mrnzeCQAAVNWMCL69JvoAAIAqWpNkuuDbe6IPAAComjVJLkpyV+lBOoEzfQAAQJWsSfLtJNfa 8rWG6AMAAKrip9kZfJtLD9MpfN4JAABUxYwIvpYTfQAAQBU8lOQGwdd6og8AACjtoST/kmRl6UE6 kTN9AABASQ8lGUgyxZavPUQfAABQ0vQkkwcagy+WHqRT+bwTAAAo5cEkNwq+9rLpAwAASlid5MI4 x9d2og8AABhvq5NckGSaLV/7iT4AAGA8rU5yfprPMwi+cSD6AACA8TQ9zQ3fS6UH6RYucgEAAMbL A0mmC77xZdMHAACMh/uTfCvJvaUH6TaiDwAAaLf7k3wzyQxbvvEn+gAAgHa6L83gmyn4yhB9AABA O01Pc8P3culBupWLXAAAgHa5L8mNgq8smz4AAKAdfpLkn5OsKj1ItxN9AABAq/0kyTeSzLblK8/n nQAAQCutSnJuBF9l2PQBAACtdEOawfdK6UFosukDAABaZVWaN3UKvgoRfQAAQKtMS/M8HxUi+gAA gFa4N7Z8lST6AACAvXVPkq+l+S4fFeMiFwAAYG+MBt+CgcbgUOlheDPRBwAAjNU9Sc5JcrPgqy6f dwIAAGM1LYKv8kQfAAAwFivTvLhF8FWc6AMAAPbU3UnOTnJ/6UHYNWf6AACAPTEafIsGGoNbSg/D rtn0AQAAu+uuCL7aEX0AAMDumhbBVzuiDwAA2B13pXlxi+CrGdEHAADsyookX02yuvQg7DkXuQAA AO9kNPiWDDQGt5Yehj1n0wcAALydOyP4ak/0AQAAb2daBF/tiT4AAOCt3JnmxS2Cr+ZEHwAA8EbL k/xdkgdLD8Lec5ELAADwesuT/G2SZQONwVdLD8Pes+kDAABGLYvg6ziiDwAAGDU1gq/jiD4AACBp bvlmCr7OI/oAAIA7kpyV5KHSg9B6LnIBAIDudkeSv05y10BjcFvpYWg9mz4AAOhet0fwdTzRBwAA 3ev6CL6OJ/oAAKA73Z7mxS2Cr8OJPgAA6D5Lk3w5yZrSg9B+LnIBAIDusiTJV5LcM9AY3F56GNpP 9AEAQPdYkuaG717B1z183gkAAN3j+gi+riP6AACgO9yW5sUtgq/LiD4AAOh8tyX5YpKHSw/C+HOm DwAAOtutaQbffQONweHSwzD+RB8AAHSuW5P8VZL7BV/38nknAAB0rikRfF1P9AEAQGdanOQmwYfo AwCAzrM4yZlJ1pYehPKc6QMAgM6yKM3ge3CgMThSehjKE30AANA5FiX5fJKHBB+jfN4JAACdY3IE H28g+gAAoDMsTDJL8PFGog8AAOpvYZIzkjxSeA4qyJk+AACot1vSDL6HBxqDpWehgmz6AACg3iZH 8PEORB8AANTXLWme4ys9BxUm+gAAoJ5uTvK5JI3Sg1Btog8AWmHCvsOlRwC6ymvBZ8vHrrjIBQBa oGf/QzaPvPhY6TGA7rAgyecGGoPrSg9CPdj0AUAL9Bxw6KbSMwBdYSTJZMHHnhB9ANACPQceeluS B0vPAXS04STzk8wqPQj1IvoAoAUmHn7RuiRXlZ4D6FijwfeXtnzsKdEHAADVNpxkXpIzBB9j4SIX AACotgVpBt/60oNQTzZ9ANAiPe96zwulZwA6zvY0L24RfIyZ6AOAFuk55EOz4zIXoHW2JZmTZHbp Qag30QcALdJ7xCVr4zIXoDW2JZmb5ExbPvaW6AMAgGrZluZ2T/DREqIPAFqo56D3PVd6BqD25if5 guCjVUQfALTQhEOPnBzn+oCxezXNi1seLT0InUP0AUALTfzdrz8T5/qAsdma5KY0z/JBy4g+AGix ngN+/c7Y9gF7ZmuSWUm+ZMtHq4k+AGixvhOWzIttH7D7tiaZGcFHm4g+AGiLnpHSEwC1MS/JlwUf 7SL6AKANJrzn8JviE09g17YkmTLQGNxQehA6l+gDgDboPeqH98YnnsA7G0pyY5qbPmgb0QcAbdJz 8G/dFts+4K0NJZmR5CxbPtpN9AFAm/R9ct7i2PYBbzaUZHoEH+NE9AFAG/Uc9BvLYtsH/KJ5Sf5G 8DFeRB8AtFHfcYsWxLYP2OmVNC9ueaz0IHQP0QcAbdbzy79zS2z7gOTlJNOSzC89CN1F9AFAm/Ud O+P22PZBt3s5yQ1J/t6Wj/Em+gBgHEx4/yeujW0fdLN5EXwUIvoAYBz0HnHJ2vQd/NUIP+hGL8U5 PgoSfQAwTvpPvvfG+MwTus1LSaYmWVB6ELqX6AOAcTThsElTY7MSZGkAAAM6SURBVNsH3WRukn8Y aAw+XnoQupfoA4Bx1Hvk/6zu2f+QsyL8oBu8mOR6wUdpog8AxlnfSctnp2efcyP8oJNtTjIlyc2l BwHRBwAF9P/5I9fF+T7oVJuTTE5yti0fVSD6AKCQCe8/1jMO0HlGg++cgcbgE6WHgUT0AUAxvUd8 d+2EQz50aoQfdJI5EXxUjOgDgIJ6j5m8oueg930xwg86wc/TvLhF8FEpog8ACus7buGCngMP+1KE H9TZC0muS7Kw8BzwJqIPACqg7/hb5/fs/25POUA9jQbf1235qCLRBwAV0XfSstk9B77Xxg/q5YUk 1yb5p4HG4JOlh4G3IvoAoEL6jl88v+eXPnBmhB/UxZwk5wo+qkz0AUDF9H1qwcIJ7/79UyL8oOo2 pXlxi+Cj0kQfAFRQ75/+3937/OZJRyU5J+IPquj5JD9Ksqj0ILArog8AKmri4f+6vv/0dRdkwr7n RvhBlYwG33m2fNSB6AOAius/be11LniBynguyTURfNSI6AOAGug7fvH8fT5w/NHxuSeUNifJNwca g0+VHgR2l+gDgJqY+JHvrOs/fd0FPe/61a9E+EEJzyWZKvioG9EHADXTd+Idc/f57c/+YSbse3bE H4yXZ5P8MMni0oPAnhJ9AFBDE3/v3Kf6T1s7MOHXjjgpPvmEdhsNvgts+aijfUsPAACMXe+kK1cl WbX1phPmDj+1fFKSU5N8sPBY0EmeSTP4LhxoDD5dehgYC9EHAB2g95gfr0iyYuvcU2cMP7b44xF/ 0CpzIvioOdEHAB2kd9JVq5KsenXpP/7v9kemnZxXX+qNAISxeibNi1sEH7Um+gCgA0388AWPJ7ko SbbOPnnW8JO3H52R4Z4IQNhdG5NcmeTW0oPA3hJ9ANDheo++ZmWSlUmydcFfTB1+YunHdmwAExEI b2VjkiuSfNuWj04g+gCgi/QeObg6yerR31vnnjZ95NlVfzwy9Nz+r/tvQpButXLHn/PTDL6NJYeB VukpPQAAUC2vLj/vV0Y2b/iDvPL0ASNbNu03suX5/fLqi30Z3uapJzraN877kxU7/rpS8AEAAAAA AAAAAAAAAAAAAAAAAK/5f05EK2afHKtwAAAAAElFTkSuQmCC "/>
   <g stroke-width=".26458">
    <path d="m-4.8592 257.44c-4.6068-1.001-8.456-3.9286-10.646-8.097-1.8014-3.4287-1.8545-3.9174-1.8589-17.102l-0.0039-11.708h-57.04l-27.505-8.7397c-15.128-4.8068-29.738-9.4542-32.466-10.327l-4.9609-1.5877 0.01-45.888 58.114-58.472 12.941 1.4181c7.1175 0.77996 13.313 1.4941 13.768 1.5869 0.6225 0.12715 4.2337 3.3951 14.628 13.238l13.802 13.069-0.60555 0.67612c-9.0361 9.7298-16.641 17.055-26.118 27.372l-0.64144 0.71502h36.076v-49.025c0-54.16-0.12446-50.196 1.6971-54.059 1.0585-2.2448 3.6576-5.1189 5.7914-6.4042 0.80013-0.48196 2.2703-1.1641 3.267-1.5158l1.8122-0.63949 25.665-0.0017c19.873-0.0013 25.799 0.07207 26.26 0.32515 0.32753 0.17976 3.6613 4.2632 7.4083 9.0743 14.841 19.056 23.507 30.102 25.621 32.66 0.66155 0.80036 2.1176 2.6584 3.2358 4.1289 1.1181 1.4705 3.7287 4.8254 5.8013 7.4553l3.7684 4.7816 0.50066 99.096-3.9062 4.9097c-2.1484 2.7003-4.2545 5.3859-4.6801 5.968-0.42566 0.58209-4.3458 5.5497-8.7114 11.039s-8.5849 10.823-9.3761 11.854c-0.79121 1.03-1.6956 2.1346-2.0097 2.4547-0.31411 0.32004-3.1531 3.8561-6.3088 7.8579s-6.9857 8.8536-8.5111 10.782l-2.7734 3.5057-25.198-0.021c-20.123-0.0168-25.53-0.0931-26.844-0.37878z" fill="#e4e3df"/>
    <path d="m-5.673 257.04c-5.0951-1.3348-8.8469-4.8693-10.807-10.181-0.44108-1.1954-0.50104-2.5341-0.62212-13.891l-0.134-12.568-57.415-0.1306-64.426-20.47v-46.073l58.075-58.077 32.658 32.655 10.994-1.7214c6.0467-0.94676 10.962-1.6404 10.924-1.5414-0.03859 0.099-6.0828 6.4517-13.432 14.117s-13.361 14.079-13.361 14.252c0 0.44233 35.225 0.59209 35.756 0.15202 0.30139-0.25014 0.36011-8.288 0.36011-49.291 0-54.167-0.1238-50.269 1.7151-53.998 0.50237-1.0186 1.3898-2.4024 1.9721-3.075 1.4354-1.6581 4.2616-3.5407 6.5021-4.3312l1.8493-0.65245 52.246-0.0112 2.4578 3.1089c1.3518 1.7099 3.2147 4.1209 4.1398 5.3578 0.92511 1.2369 1.8187 2.368 1.9857 2.5135 0.36079 0.31438 9.9663 12.51 13.128 16.669 1.2172 1.6007 4.014 5.1726 6.2151 7.9375s5.3378 6.7535 6.9705 8.8635c3.8501 4.976 6.7036 8.6039 8.873 11.281l1.7445 2.1527 0.25107 49.821 0.25106 49.821-3.9076 4.9115c-2.1492 2.7013-4.2552 5.3877-4.6799 5.9698-1.1658 1.5978-9.1236 11.56-9.7517 12.208-0.30191 0.31149-1.8586 2.2502-3.4593 4.3082s-6.1133 7.7562-10.028 12.663c-3.9146 4.9066-7.6239 9.6032-8.2428 10.437-0.6189 0.83374-2.1689 2.828-3.4445 4.4318l-2.3193 2.9159-25.554-0.0146c-24.286-0.0138-25.649-0.0397-27.485-0.52046z" fill="#e4e3df"/>
    <path d="m46.661 149.89c0-70.385 0.09011-107.69 0.26013-107.69 0.26096 0 3.7125 4.2613 6.8577 8.4667 0.92511 1.2369 1.8187 2.368 1.9857 2.5135 0.36079 0.31438 9.9663 12.51 13.128 16.669 1.2172 1.6007 4.014 5.1726 6.2151 7.9375s5.3378 6.7535 6.9705 8.8635c3.8501 4.976 6.7036 8.6039 8.873 11.281l1.7445 2.1527 0.25107 49.821 0.25106 49.821-3.9076 4.9115c-2.1492 2.7013-4.2552 5.3877-4.6799 5.9698-1.1658 1.5978-9.1236 11.56-9.7517 12.208-0.30191 0.31149-1.8586 2.2502-3.4593 4.3082s-6.1133 7.7562-10.028 12.663c-3.9146 4.9066-7.6239 9.6032-8.2428 10.437-2.6783 3.608-5.791 7.3477-6.1158 7.3477-0.29239 0-0.35202-18.24-0.35202-107.69z" fill="#9e6190"/>
    <path d="m46.661 149.89c0-66.544 0.09424-107.42 0.24766-107.42 0.13622 0 1.5651 1.6966 3.1752 3.7703 1.6102 2.0737 3.2393 4.1275 3.6204 4.5641 0.38104 0.43656 3.804 4.7666 7.6065 9.6224 3.8026 4.8558 10.19 13.012 14.194 18.124 4.004 5.1124 8.2224 10.544 9.3741 12.07 1.1518 1.5258 2.2966 2.9546 2.544 3.175 0.24745 0.22042 1.5348 1.7875 2.8608 3.4823l2.4109 3.0816 0.50074 99.112-3.9062 4.9097c-2.1484 2.7003-4.254 5.3859-4.679 5.968-0.42506 0.58209-3.1546 4.0144-6.0656 7.6273-5.4012 6.7036-10.022 12.485-10.926 13.672-0.27727 0.3638-3.7667 4.7836-7.7542 9.8217-3.9876 5.0381-8.4303 10.664-9.8728 12.502-1.4425 1.8377-2.7819 3.3413-2.9766 3.3413-0.29487 0-0.35388-17.912-0.35388-107.42z" fill="#772063"/>
   </g>
   <g fill="#4c4f5a">
    <path d="m46.661 149.89c0-70.385 0.09011-107.69 0.26013-107.69 0.26096 0 3.7125 4.2613 6.8577 8.4667 0.92511 1.2369 1.8187 2.368 1.9857 2.5135 0.36079 0.31438 9.9663 12.51 13.128 16.669 1.2172 1.6007 4.014 5.1726 6.2151 7.9375s5.3378 6.7535 6.9705 8.8635c3.8501 4.976 6.7036 8.6039 8.873 11.281l1.7445 2.1527 0.25107 49.821 0.25106 49.821-3.9076 4.9115c-2.1492 2.7013-4.2552 5.3877-4.6799 5.9698-1.1658 1.5978-9.1236 11.56-9.7517 12.208-0.30191 0.31149-1.8586 2.2502-3.4593 4.3082s-6.1133 7.7562-10.028 12.663c-3.9146 4.9066-7.6239 9.6032-8.2428 10.437-2.6783 3.608-5.791 7.3477-6.1158 7.3477-0.29239 0-0.35202-18.24-0.35202-107.69z"/>
    <path d="m-105.61 210.37c-17.026-5.4222-31.135-9.9288-31.353-10.015-0.21828-0.0858 26.541-0.16543 59.465-0.17692l59.862-0.0209v20.108l-57.018-0.0372-30.956-9.8586z"/>
    <path d="m-73.592 153.59 25.246-25.289 22.265-3.4746-27.365 28.763z"/>
   </g>
  </g>
 </g>
</svg>
